…
The estimates provide a breakdown by gender, which we’re not interested in here. Because they’re model-based estimates, they’re also not whole numbers - so we add the figures for each gender together, and then round the estimate to the nearest whole number.

library(tidyverse)

migration <- data.table::fread("Detailed_Estimates_2018_Dataset_1_2019_LA_boundaries.csv") %>% 
  bind_rows(data.table::fread("Detailed_Estimates_2018_Dataset_2_2019_LA_boundaries.csv")) %>% 
  janitor::clean_names() %>% 
  # Counting total number of moves by age (including both genders) of both genders
  group_by(out_la, in_la, age) %>% 
  summarise(moves = sum(moves) %>% round(0)) %>% 
  ungroup()

migration

## # A tibble: 1,093,317 x 4
##    out_la    in_la       age moves
##    <chr>     <chr>     <int> <dbl>
##  1 E06000001 E06000002     0     1
##  2 E06000001 E06000002     1     1
##  3 E06000001 E06000002     2     4
##  4 E06000001 E06000002     3     4
##  5 E06000001 E06000002     5     6
##  6 E06000001 E06000002     6     4
##  7 E06000001 E06000002     7     1
##  8 E06000001 E06000002     8     4
##  9 E06000001 E06000002     9     3
## 10 E06000001 E06000002    10     1
## # … with 1,093,307 more rows
…
