…
As the data contains three major means sources of energy use, we can easily summarise what share each use represents for every London borough.

energy_summarised <- energy %>% 
  filter(leggi_year == 2017, sector != "Total", 
         area != "Unapportioned", 
         area != "London") %>% 
  group_by(area, sector) %>% 
  summarise(energy_consumption = sum(k_wh)) %>% 
  ungroup() %>% 
  group_by(area) %>% 
  mutate(energy_consumption = energy_consumption/sum(energy_consumption)) 

energy_summarised

## # A tibble: 99 x 3
## # Groups:   area [33]
##    area                 sector                    energy_consumption
##    <chr>                <chr>                                  <dbl>
##  1 Barking and Dagenham Domestic                               0.409
##  2 Barking and Dagenham Industrial and Commercial              0.359
##  3 Barking and Dagenham Transport                              0.232
##  4 Barnet               Domestic                               0.491
##  5 Barnet               Industrial and Commercial              0.227
##  6 Barnet               Transport                              0.282
##  7 Bexley               Domestic                               0.417
##  8 Bexley               Industrial and Commercial              0.378
##  9 Bexley               Transport                              0.204
## 10 Brent                Domestic                               0.431
## # … with 89 more rows
…
