…
Finally, we’ll convert the house prices data to a spatial dataframe object, so we can use the sf functions on the data.

house_prices_sf <- st_as_sf(house_prices, coords = c("long", "lat"), crs = 4326) %>% 
  st_transform(crs = 27700)

house_prices_sf

## Simple feature collection with 178702 features and 8 fields
## geometry type:  POINT
## dimension:      XY
## bbox:           xmin: 504093.4 ymin: 156844 xmax: 559875.9 ymax: 199969.1
## epsg (SRID):    27700
## proj4string:    +proj=tmerc +lat_0=49 +lon_0=-2 +k=0.9996012717 +x_0=400000 +y_0=-100000 +ellps=airy +towgs84=446.448,-125.157,542.06,0.15,0.247,0.842,-20.489 +units=m +no_defs
## # A tibble: 178,702 x 9
##    id     price date_of_transfer postcode property_type old_new ppd_cat
##    <chr>  <dbl> <date>           <chr>    <chr>         <chr>   <chr>  
##  1 {858… 300000 2019-03-06       KT65AL   F             N       B      
##  2 {858… 395000 2019-03-04       SE61JX   T             N       B      
##  3 {858… 212500 2019-03-05       SE78ST   F             N       B      
##  4 {858… 350000 2019-02-22       SE155GW  T             N       B      
##  5 {858… 300000 2019-02-22       SE38HP   T             N       B      
##  6 {858… 605000 2019-03-01       SW82LP   F             N       B      
##  7 {858… 280000 2019-03-08       SE135EA  T             N       B      
##  8 {858… 280000 2019-02-12       SE62DQ   F             N       B      
##  9 {858… 320000 2019-03-13       SE115LU  F             N       B      
## 10 {858… 270000 2019-02-27       SW163RE  F             N       B      
## # … with 178,692 more rows, and 2 more variables: year_of_transfer <dbl>,
## #   geometry <POINT [m]>
…
