…
# Clean data 
house_prices 

## # A tibble: 3,828 x 5
##    region_country_name local_authority_co… local_authority_n… median_price  year
##    <chr>               <chr>               <chr>                     <dbl> <dbl>
##  1 North East          E06000047           County Durham            105000  2008
##  2 North East          E06000005           Darlington               124950  2008
##  3 North East          E06000001           Hartlepool               110000  2008
##  4 North East          E06000002           Middlesbrough             99999  2008
##  5 North East          E06000057           Northumberland           142000  2008
##  6 North East          E06000003           Redcar and Clevel…       115000  2008
##  7 North East          E06000004           Stockton-on-Tees         129950  2008
##  8 North East          E08000037           Gateshead                117000  2008
##  9 North East          E08000021           Newcastle upon Ty…       142500  2008
## 10 North East          E08000022           North Tyneside           128500  2008
## # … with 3,818 more rows
…
